…
### Q4. (5pts) Generate a dataframe with the 6 vectors in Q3 and remove duplicated rows from the dataframe.

``` r
snowframe <- data.frame(created_at,tweet_id,user_name,user_id,place_name,place_type)
snowtibble <- as_tibble(snowframe)
snowtibble %>% distinct()
```

    ## # A tibble: 300 x 6
    ##    created_at                   tweet_id user_name user_id place_name place_type
    ##    <chr>                        <chr>    <chr>       <dbl> <chr>      <chr>     
    ##  1 Tue Aug 01 00:00:06 +0000 2~ 8921730~ "Miles T~  5.46e7 Southchas~ city      
    ##  2 Tue Aug 01 00:00:06 +0000 2~ 8921730~ "Florida~  4.60e8 Conway, FL city      
    ##  3 Tue Aug 01 00:00:16 +0000 2~ 8921730~ "Wendy S~  7.70e7 Birmingha~ city      
    ##  4 Tue Aug 01 00:00:27 +0000 2~ 8921731~ "Shelby ~  6.06e8 Auburn, AL city      
    ##  5 Tue Aug 01 00:00:34 +0000 2~ 8921731~ "\U0001f~  3.25e8 Gardendal~ city      
    ##  6 Tue Aug 01 00:00:43 +0000 2~ 8921732~ "Bree"     2.31e8 Pooler, GA city      
    ##  7 Tue Aug 01 00:00:55 +0000 2~ 8921732~ "Julie D~  1.03e8 <NA>       <NA>      
    ##  8 Tue Aug 01 00:00:56 +0000 2~ 8921732~ "Dana Ko~  2.32e7 Palm Beac~ city      
    ##  9 Tue Aug 01 00:00:06 +0000 2~ 8921730~ "Ben All~  2.46e7 <NA>       <NA>      
    ## 10 Tue Aug 01 00:00:09 +0000 2~ 8921730~ "Savage ~  1.01e8 Country C~ city      
    ## # ... with 290 more rows

``` r
snowtibble
```

    ## # A tibble: 300 x 6
    ##    created_at                   tweet_id user_name user_id place_name place_type
    ##    <chr>                        <chr>    <chr>       <dbl> <chr>      <chr>     
    ##  1 Tue Aug 01 00:00:06 +0000 2~ 8921730~ "Miles T~  5.46e7 Southchas~ city      
    ##  2 Tue Aug 01 00:00:06 +0000 2~ 8921730~ "Florida~  4.60e8 Conway, FL city      
    ##  3 Tue Aug 01 00:00:16 +0000 2~ 8921730~ "Wendy S~  7.70e7 Birmingha~ city      
    ##  4 Tue Aug 01 00:00:27 +0000 2~ 8921731~ "Shelby ~  6.06e8 Auburn, AL city      
    ##  5 Tue Aug 01 00:00:34 +0000 2~ 8921731~ "\U0001f~  3.25e8 Gardendal~ city      
    ##  6 Tue Aug 01 00:00:43 +0000 2~ 8921732~ "Bree"     2.31e8 Pooler, GA city      
    ##  7 Tue Aug 01 00:00:55 +0000 2~ 8921732~ "Julie D~  1.03e8 <NA>       <NA>      
    ##  8 Tue Aug 01 00:00:56 +0000 2~ 8921732~ "Dana Ko~  2.32e7 Palm Beac~ city      
    ##  9 Tue Aug 01 00:00:06 +0000 2~ 8921730~ "Ben All~  2.46e7 <NA>       <NA>      
    ## 10 Tue Aug 01 00:00:09 +0000 2~ 8921730~ "Savage ~  1.01e8 Country C~ city      
    ## # ... with 290 more rows
…
